\relax 
\@nameuse{bbl@beforestart}
\catcode `"\active 
\babel@aux{german}{}
\@writefile{toc}{\contentsline {section}{\numberline {1}Grundlagen}{1}\protected@file@percent }
\@writefile{toc}{\contentsline {subsection}{\numberline {1.1}Wahrscheinlichkeit}{1}\protected@file@percent }
\@writefile{toc}{\contentsline {subsubsection}{\numberline {1.1.1}Bedingte Wahrscheinlichkeit}{1}\protected@file@percent }
\@writefile{toc}{\contentsline {subsubsection}{\numberline {1.1.2}Satz von Bayes}{1}\protected@file@percent }
\@writefile{toc}{\contentsline {subsubsection}{\numberline {1.1.3}Zufallsvariable \& Erwartungswert}{1}\protected@file@percent }
\@writefile{toc}{\contentsline {subsection}{\numberline {1.2}Erweiterter euklidischer Algorithmus}{1}\protected@file@percent }
\newlabel{euklid}{{1.2}{1}}
\@writefile{toc}{\contentsline {section}{\numberline {2}Ordnungen, Gruppen, Verbände}{2}\protected@file@percent }
\@writefile{toc}{\contentsline {subsection}{\numberline {2.1}Ordnungen}{2}\protected@file@percent }
\newlabel{ordnungen}{{2.1}{2}}
\@writefile{toc}{\contentsline {subsection}{\numberline {2.2}Halbgruppe, Monoid, Gruppe}{2}\protected@file@percent }
\newlabel{halbgruppe_monoid_gruppe}{{2.2}{2}}
\@writefile{toc}{\contentsline {subsubsection}{\numberline {2.2.1}Halbgruppe}{2}\protected@file@percent }
\@writefile{toc}{\contentsline {subsubsection}{\numberline {2.2.2}Monoid}{2}\protected@file@percent }
\@writefile{toc}{\contentsline {subsubsection}{\numberline {2.2.3}Gruppe}{2}\protected@file@percent }
\@writefile{toc}{\contentsline {subsubsection}{\numberline {2.2.4}Beispiele}{3}\protected@file@percent }
\@writefile{toc}{\contentsline {subsection}{\numberline {2.3}Gruppen}{3}\protected@file@percent }
\@writefile{toc}{\contentsline {subsubsection}{\numberline {2.3.1}Ordnung von primen Restklassen}{3}\protected@file@percent }
\newlabel{ordnung_klasse}{{2.3.1}{3}}
\@writefile{toc}{\contentsline {subsubsection}{\numberline {2.3.2}Ordnung von Gruppenelementen}{3}\protected@file@percent }
\newlabel{ordnung_elemente}{{2.3.2}{3}}
\@writefile{toc}{\contentsline {subsection}{\numberline {2.4}Weitere Sätze \& Definitionen}{4}\protected@file@percent }
\@writefile{toc}{\contentsline {subsubsection}{\numberline {2.4.1}Der kleinste Satz von Fermat}{4}\protected@file@percent }
\newlabel{fermat}{{2.4.1}{4}}
\@writefile{toc}{\contentsline {subsubsection}{\numberline {2.4.2}Der chinesische Restsatz}{4}\protected@file@percent }
\newlabel{chinesischer}{{2.4.2}{4}}
\@writefile{toc}{\contentsline {section}{\numberline {3}Graphentheorie}{5}\protected@file@percent }
\@writefile{toc}{\contentsline {subsection}{\numberline {3.1}Begriffe}{5}\protected@file@percent }
\@writefile{toc}{\contentsline {subsubsection}{\numberline {3.1.1}Eulerscher Weg \& Kreis}{5}\protected@file@percent }
\@writefile{toc}{\contentsline {subsubsection}{\numberline {3.1.2}Hamiltonscher Kreis}{5}\protected@file@percent }
\@writefile{toc}{\contentsline {subsection}{\numberline {3.2}Hypercubes \& Gray-Codes}{5}\protected@file@percent }
\@writefile{toc}{\contentsline {subsection}{\numberline {3.3}Verbände}{6}\protected@file@percent }
\@writefile{toc}{\contentsline {subsubsection}{\numberline {3.3.1}Definition}{6}\protected@file@percent }
\@writefile{toc}{\contentsline {subsubsection}{\numberline {3.3.2}Beispiele}{6}\protected@file@percent }
\@writefile{toc}{\contentsline {subsection}{\numberline {3.4}Funktionen auf Ordnungen}{7}\protected@file@percent }
\@writefile{toc}{\contentsline {subsection}{\numberline {3.5}Matrizendarstellung eines Graphen}{8}\protected@file@percent }
