\relax 
\providecommand\hyper@newdestlabel[2]{}
\@nameuse{bbl@beforestart}
\catcode `"\active 
\providecommand\HyperFirstAtBeginDocument{\AtBeginDocument}
\HyperFirstAtBeginDocument{\ifx\hyper@anchor\@undefined
\global\let\oldcontentsline\contentsline
\gdef\contentsline#1#2#3#4{\oldcontentsline{#1}{#2}{#3}}
\global\let\oldnewlabel\newlabel
\gdef\newlabel#1#2{\newlabelxx{#1}#2}
\gdef\newlabelxx#1#2#3#4#5#6{\oldnewlabel{#1}{{#2}{#3}}}
\AtEndDocument{\ifx\hyper@anchor\@undefined
\let\contentsline\oldcontentsline
\let\newlabel\oldnewlabel
\fi}
\fi}
\global\let\hyper@last\relax 
\gdef\HyperFirstAtBeginDocument#1{#1}
\providecommand\HyField@AuxAddToFields[1]{}
\providecommand\HyField@AuxAddToCoFields[2]{}
\AC@reset@newl@bel
\bibstyle{plain}
\babel@aux{ngerman}{}
\acronymused{GSN}
\AC@undonewlabel{acro:SGSN}
\newlabel{acro:SGSN}{{}{2}{\contentsname \@mkboth {\MakeUppercase \contentsname }{\MakeUppercase \contentsname }}{section*.2}{}}
\acronymused{SGSN}
\AC@undonewlabel{acro:GGSN}
\newlabel{acro:GGSN}{{}{2}{\contentsname \@mkboth {\MakeUppercase \contentsname }{\MakeUppercase \contentsname }}{section*.3}{}}
\acronymused{GGSN}
\acronymused{PLMN}
\acronymused{QoS}
\AC@undonewlabel{acro:PDP}
\newlabel{acro:PDP}{{}{2}{\contentsname \@mkboth {\MakeUppercase \contentsname }{\MakeUppercase \contentsname }}{section*.4}{}}
\acronymused{PDP}
\acronymused{SGSN}
\acronymused{SGSN}
\newacro{AUC}[\AC@hyperlink{AUC}{AUC}]{Authentication Center}
\newacro{BSC}[\AC@hyperlink{BSC}{BSC}]{Base Station Controller}
\newacro{BG}[\AC@hyperlink{BG}{BG}]{Border Gateway}
\newacro{BSS}[\AC@hyperlink{BSS}{BSS}]{Base Station Subsystem}
\newacro{BTS}[\AC@hyperlink{BTS}{BTS}]{Base Transceiver Station}
\newacro{CSD}[\AC@hyperlink{CSD}{CSD}]{Circuit Switched Data}
\newacro{EDGE}[\AC@hyperlink{EDGE}{EDGE}]{Enhanced Data Rates for GSM Evolution}
\newacro{EIR}[\AC@hyperlink{EIR}{EIR}]{Equipment Identity Register}
\newacro{GGSN}[\AC@hyperlink{GGSN}{GGSN}]{Gateway GPRS Support Node}
\newacro{GMSC}[\AC@hyperlink{GMSC}{GMSC}]{Gateway Mobile Switching Center}
\newacro{GPRS}[\AC@hyperlink{GPRS}{GPRS}]{General Packet Radio Service}
\newacro{GSM}[\AC@hyperlink{GSM}{GSM}]{Global System for Mobile Communications}
\newacro{GSN}[\AC@hyperlink{GSN}{GSN}]{GPRS Support Node}
\newacro{GTP}[\AC@hyperlink{GTP}{GTP}]{GPRS Tunneling Protocol}
\newacro{HLR}[\AC@hyperlink{HLR}{HLR}]{Home Location Register}
\newacro{IMEI}[\AC@hyperlink{IMEI}{IMEI}]{International Mobile Equipment Identity}
\newacro{ISC}[\AC@hyperlink{ISC}{ISC}]{International Switching Center}
\newacro{LLC}[\AC@hyperlink{LLC}{LLC}]{Logical Link Control}
\newacro{MS}[\AC@hyperlink{MS}{MS}]{Mobile Station}
\newacro{MSC}[\AC@hyperlink{MSC}{MSC}]{Mobile Switching Center}
\newacro{NSS}[\AC@hyperlink{NSS}{NSS}]{Network Switching Subsystem}
\newacro{OMC}[\AC@hyperlink{OMC}{OMC}]{Operation and Management Center}
\newacro{OMSS}[\AC@hyperlink{OMSS}{OMSS}]{Operation and Management Subsystem}
\newacro{PCU}[\AC@hyperlink{PCU}{PCU}]{Packet Control Unit}
\newacro{PDN}[\AC@hyperlink{PDN}{PDN}]{Packet Data Network}
\newacro{PDP}[\AC@hyperlink{PDP}{PDP}]{Packet Data Protocol}
\newacro{PLMN}[\AC@hyperlink{PLMN}{PLMN}]{Public Land Mobile Network}
\newacro{P-TMSI}[\AC@hyperlink{P-TMSI}{P-TMSI}]{Packet Temporary Mobile Subscriber Identity}
\newacro{QoS}[\AC@hyperlink{QoS}{QoS}]{Quality of Service}
\newacro{RA}[\AC@hyperlink{RA}{RA}]{Routing Area}
\newacro{RAI}[\AC@hyperlink{RAI}{RAI}]{Routing Area Identity}
\newacro{SGSN}[\AC@hyperlink{SGSN}{SGSN}]{Serving GPRS Support Node}
\newacro{SMS-GMSC}[\AC@hyperlink{SMS-GMSC}{SMS-GMSC}]{SMS-Mobile Switching Center}
\newacro{SMS-IWMSC}[\AC@hyperlink{SMS-IWMSC}{SMS-IWMSC}]{SMS-InterWorking Message Center}
\newacro{TDMA}[\AC@hyperlink{TDMA}{TDMA}]{Time Division Multiple Access}
\newacro{VLR}[\AC@hyperlink{VLR}{VLR}]{Visitor Location Register}
\citation{electronics-notes-edge}
\citation{walke-2013}
\citation{nuntius-gprs}
\citation{vdsl}
\citation{gsm}
\@writefile{toc}{\contentsline {section}{\numberline {1}Einleitung}{4}{section.1}\protected@file@percent }
\@writefile{toc}{\contentsline {subsection}{\numberline {1.1}Hintergrund}{4}{subsection.1.1}\protected@file@percent }
\AC@undonewlabel{acro:GPRS}
\newlabel{acro:GPRS}{{1.1}{4}{Hintergrund}{section*.6}{}}
\acronymused{GPRS}
\AC@undonewlabel{acro:GSM}
\newlabel{acro:GSM}{{1.1}{4}{Hintergrund}{section*.7}{}}
\acronymused{GSM}
\AC@undonewlabel{acro:CSD}
\newlabel{acro:CSD}{{1.1}{4}{Hintergrund}{section*.8}{}}
\acronymused{CSD}
\acronymused{GPRS}
\@writefile{toc}{\contentsline {subsection}{\numberline {1.2}Vorteile eines paketorientierten Dienstes}{4}{subsection.1.2}\protected@file@percent }
\@writefile{toc}{\contentsline {subsubsection}{\numberline {1.2.1}Vorteile für Nutzer}{4}{subsubsection.1.2.1}\protected@file@percent }
\acronymused{GPRS}
\@writefile{toc}{\contentsline {subsubsection}{\numberline {1.2.2}Vorteile für Internetanbieter}{4}{subsubsection.1.2.2}\protected@file@percent }
\citation{gsm}
\citation{gsm}
\citation{gsm}
\citation{gsm-architecture}
\@writefile{toc}{\contentsline {section}{\numberline {2}GSM Grundarchitektur}{5}{section.2}\protected@file@percent }
\@writefile{lof}{\contentsline {figure}{\numberline {1}{\ignorespaces GSM Systemarchitektur \citep  [S. 44]{gsm}\relax }}{5}{figure.caption.9}\protected@file@percent }
\providecommand*\caption@xref[2]{\@setref\relax\@undefined{#1}}
\newlabel{gsm_architecture}{{1}{5}{GSM Systemarchitektur \citep [S. 44]{gsm}\relax }{figure.caption.9}{}}
\acronymused{GSM}
\AC@undonewlabel{acro:BSS}
\newlabel{acro:BSS}{{2}{5}{GSM Grundarchitektur}{section*.10}{}}
\acronymused{BSS}
\acronymused{GSM}
\AC@undonewlabel{acro:BTS}
\newlabel{acro:BTS}{{2}{5}{GSM Grundarchitektur}{section*.11}{}}
\acronymused{BTS}
\AC@undonewlabel{acro:MS}
\newlabel{acro:MS}{{2}{5}{GSM Grundarchitektur}{section*.12}{}}
\acronymused{MS}
\AC@undonewlabel{acro:BSC}
\newlabel{acro:BSC}{{2}{5}{GSM Grundarchitektur}{section*.13}{}}
\acronymused{BSC}
\acronymused{BTS}
\acronymused{BSC}
\acronymused{BSS}
\AC@undonewlabel{acro:NSS}
\newlabel{acro:NSS}{{2}{5}{GSM Grundarchitektur}{section*.14}{}}
\acronymused{NSS}
\acronymused{NSS}
\AC@undonewlabel{acro:MSC}
\newlabel{acro:MSC}{{2}{5}{GSM Grundarchitektur}{section*.15}{}}
\acronymused{MSC}
\acronymused{MSC}
\AC@undonewlabel{acro:ISC}
\newlabel{acro:ISC}{{2}{5}{GSM Grundarchitektur}{section*.16}{}}
\acronymused{ISC}
\AC@undonewlabel{acro:GMSC}
\newlabel{acro:GMSC}{{2}{5}{GSM Grundarchitektur}{section*.17}{}}
\acronymused{GMSC}
\acronymused{MSC}
\acronymused{NSS}
\AC@undonewlabel{acro:AUC}
\newlabel{acro:AUC}{{2}{5}{GSM Grundarchitektur}{section*.18}{}}
\acronymused{AUC}
\AC@undonewlabel{acro:EIR}
\newlabel{acro:EIR}{{2}{5}{GSM Grundarchitektur}{section*.19}{}}
\acronymused{EIR}
\acronymused{MS}
\acronymused{MS}
\AC@undonewlabel{acro:IMEI}
\newlabel{acro:IMEI}{{2}{5}{GSM Grundarchitektur}{section*.20}{}}
\acronymused{IMEI}
\acronymused{IMEI}
\citation{gsm}
\citation{gsm}
\citation{gsm}
\citation{electronics-notes-gprs}
\acronymused{MS}
\AC@undonewlabel{acro:HLR}
\newlabel{acro:HLR}{{2}{6}{GSM Grundarchitektur}{section*.21}{}}
\acronymused{HLR}
\acronymused{HLR}
\AC@undonewlabel{acro:VLR}
\newlabel{acro:VLR}{{2}{6}{GSM Grundarchitektur}{section*.22}{}}
\acronymused{VLR}
\acronymused{MSC}
\acronymused{MS}
\acronymused{MSC}
\acronymused{MSC}
\acronymused{VLR}
\acronymused{MS}
\acronymused{HLR}
\acronymused{MS}
\acronymused{VLR}
\acronymused{HLR}
\AC@undonewlabel{acro:OMSS}
\newlabel{acro:OMSS}{{2}{6}{GSM Grundarchitektur}{section*.23}{}}
\acronymused{OMSS}
\AC@undonewlabel{acro:OMC}
\newlabel{acro:OMC}{{2}{6}{GSM Grundarchitektur}{section*.24}{}}
\acronymused{OMC}
\acronymused{NSS}
\acronymused{BSC}
\@writefile{toc}{\contentsline {section}{\numberline {3}GPRS Systemarchitektur}{6}{section.3}\protected@file@percent }
\acronymused{GPRS}
\acronymused{GSN}
\@writefile{toc}{\contentsline {subsection}{\numberline {3.1}Die \aclp {GSN}}{6}{subsection.3.1}\protected@file@percent }
\AC@undonewlabel{acro:GSN}
\newlabel{acro:GSN}{{3.1}{6}{Die \aclp {GSN}}{section*.25}{}}
\acronymused{GSN}
\AC@undonewlabel{acro:PDN}
\newlabel{acro:PDN}{{3.1}{6}{Die \aclp {GSN}}{section*.26}{}}
\acronymused{PDN}
\acronymused{GSN}
\acronymused{SGSN}
\acronymused{GGSN}
\@writefile{lof}{\contentsline {figure}{\numberline {2}{\ignorespaces GPRS Systemarchitektur \citep  [S. 235]{gsm}\relax }}{6}{figure.caption.27}\protected@file@percent }
\newlabel{gprs_architecture}{{2}{6}{GPRS Systemarchitektur \citep [S. 235]{gsm}\relax }{figure.caption.27}{}}
\citation{gsm}
\citation{electronics-notes-gprs}
\citation{3gpp-doc}
\citation{gsm}
\citation{3gpp-doc}
\citation{gsm}
\acronymused{SGSN}
\@writefile{toc}{\contentsline {subsubsection}{\numberline {3.1.1}\acf {SGSN}}{7}{subsubsection.3.1.1}\protected@file@percent }
\acronymused{SGSN}
\acronymused{MS}
\acronymused{BTS}
\acronymused{BSC}
\acronymused{BSS}
\acronymused{NSS}
\acronymused{GSN}
\acronymused{SGSN}
\acronymused{MS}
\AC@undonewlabel{acro:LLC}
\newlabel{acro:LLC}{{3.1.1}{7}{\acf {SGSN}}{section*.28}{}}
\acronymused{LLC}
\acronymused{GGSN}
\@writefile{toc}{\contentsline {subsubsection}{\numberline {3.1.2}\acf {GGSN}}{7}{subsubsection.3.1.2}\protected@file@percent }
\acronymused{GGSN}
\acronymused{GPRS}
\acronymused{PDN}
\acronymused{GPRS}
\acronymused{SGSN}
\acronymused{PDP}
\acronymused{PDP}
\acronymused{GSM}
\acronymused{SGSN}
\@writefile{toc}{\contentsline {subsection}{\numberline {3.2}Interfaces}{7}{subsection.3.2}\protected@file@percent }
\newlabel{interfaces}{{3.2}{7}{Interfaces}{subsection.3.2}{}}
\acronymused{GSN}
\acronymused{GSM}
\acronymused{BSC}
\acronymused{SGSN}
\acronymused{GGSN}
\acronymused{HLR}
\acronymused{SGSN}
\acronymused{SGSN}
\acronymused{EIR}
\acronymused{GGSN}
\acronymused{PDN}
\acronymused{GSN}
\acronymused{GSN}
\acronymused{SGSN}
\acronymused{HLR}
\acronymused{SGSN}
\acronymused{MSC}
\acronymused{VLR}
\@writefile{lot}{\contentsline {table}{\numberline {1}{\ignorespaces \ac {GPRS}-Interfaces\relax }}{7}{figure.caption.29}\protected@file@percent }
\acronymused{GPRS}
\acronymused{SGSN}
\acronymused{SMS-GMSC}
\acronymused{SMS-IWMSC}
\acronymused{GSN}
\AC@undonewlabel{acro:PLMN}
\newlabel{acro:PLMN}{{2}{7}{Interfaces}{section*.30}{}}
\acronymused{PLMN}
\citation{3gpp-doc}
\citation{3gpp-doc}
\citation{electronics-notes-gprs}
\citation{gsm}
\citation{electronics-notes-gprs}
\acronymused{PLMN}
\@writefile{toc}{\contentsline {subsection}{\numberline {3.3}\acs {PLMN}-Backbones}{8}{subsection.3.3}\protected@file@percent }
\acronymused{GSN}
\acronymused{GPRS}
\acronymused{PDN}
\AC@undonewlabel{acro:GTP}
\newlabel{acro:GTP}{{3.3}{8}{\acs {PLMN}-Backbones}{section*.31}{}}
\acronymused{GTP}
\acronymused{PLMN}
\acronymused{GPRS}
\acronymused{GSN}
\acronymused{GPRS}
\acronymused{PLMN}
\acronymused{GSN}
\acronymused{GPRS}
\acronymused{PLMN}
\AC@undonewlabel{acro:BG}
\newlabel{acro:BG}{{3.3}{8}{\acs {PLMN}-Backbones}{section*.32}{}}
\acronymused{BG}
\acronymused{GGSN}
\acronymused{PLMN}
\@writefile{lof}{\contentsline {figure}{\numberline {3}{\ignorespaces Backbone-Schaubild, nach \citep  [S. 55]{3gpp-doc}\relax }}{8}{figure.caption.33}\protected@file@percent }
\newlabel{backbone}{{3}{8}{Backbone-Schaubild, nach \citep [S. 55]{3gpp-doc}\relax }{figure.caption.33}{}}
\@writefile{toc}{\contentsline {subsection}{\numberline {3.4}Zusätzliche Hardware}{8}{subsection.3.4}\protected@file@percent }
\acronymused{GSM}
\AC@undonewlabel{acro:PCU}
\newlabel{acro:PCU}{{3.4}{8}{Zusätzliche Hardware}{section*.34}{}}
\acronymused{PCU}
\acronymused{MS}
\acronymused{GSM}
\acronymused{GPRS}
\acronymused{MSC}
\acronymused{SGSN}
\acronymused{PCU}
\acronymused{BSC}
\@writefile{toc}{\contentsline {section}{\numberline {4}GPRS-Qualität und Services}{8}{section.4}\protected@file@percent }
\@writefile{toc}{\contentsline {subsection}{\numberline {4.1}Klassifizierung}{8}{subsection.4.1}\protected@file@percent }
\acronymused{GPRS}
\citation{heise}
\citation{electronics-notes-gprs}
\citation{gsm}
\@writefile{toc}{\contentsline {subsubsection}{\numberline {4.1.1}Fähigkeits-Klassen}{9}{subsubsection.4.1.1}\protected@file@percent }
\acronymused{GPRS}
\acronymused{GPRS}
\acronymused{GSM}
\acronymused{GSM}
\acronymused{GPRS}
\acronymused{GSM}
\acronymused{GPRS}
\acronymused{GPRS}
\acronymused{GSM}
\acronymused{GPRS}
\@writefile{toc}{\contentsline {subsubsection}{\numberline {4.1.2}Multislot-Klassen}{9}{subsubsection.4.1.2}\protected@file@percent }
\newlabel{multislot}{{4.1.2}{9}{Multislot-Klassen}{subsubsection.4.1.2}{}}
\acronymused{GPRS}
\acronymused{GSM}
\AC@undonewlabel{acro:TDMA}
\newlabel{acro:TDMA}{{4.1.2}{9}{Multislot-Klassen}{section*.35}{}}
\acronymused{TDMA}
\acronymused{GPRS}
\acronymused{GPRS}
\@writefile{lot}{\contentsline {table}{\numberline {2}{\ignorespaces \ac {GPRS} Multislot-Klassen\relax }}{9}{figure.caption.36}\protected@file@percent }
\acronymused{GPRS}
\newlabel{multislot_table}{{2}{9}{\ac {GPRS} Multislot-Klassen\relax }{figure.caption.36}{}}
\@writefile{toc}{\contentsline {subsection}{\numberline {4.2}Services}{9}{subsection.4.2}\protected@file@percent }
\acronymused{GPRS}
\citation{gsm}
\citation{qos}
\citation{qos}
\citation{gsm}
\citation{qos}
\citation{gsm}
\citation{qos}
\citation{qos}
\acronymused{GPRS}
\acronymused{GPRS}
\acronymused{GPRS}
\acronymused{QoS}
\@writefile{toc}{\contentsline {subsection}{\numberline {4.3}\acl {QoS}}{10}{subsection.4.3}\protected@file@percent }
\acronymused{GPRS}
\AC@undonewlabel{acro:QoS}
\newlabel{acro:QoS}{{4.3}{10}{\acl {QoS}}{section*.37}{}}
\acronymused{QoS}
\acronymused{QoS}
\acronymused{GPRS}
\acronymused{QoS}
\acronymused{MS}
\@writefile{toc}{\contentsline {subsubsection}{\numberline {4.3.1}Service-Priorität}{10}{subsubsection.4.3.1}\protected@file@percent }
\@writefile{toc}{\contentsline {subsubsection}{\numberline {4.3.2}Verlässlichkeit}{10}{subsubsection.4.3.2}\protected@file@percent }
\@writefile{lot}{\contentsline {table}{\numberline {3}{\ignorespaces Wahrscheinlichkeit des Eintritts der jeweiligen Parameter in den entsprechenden Verlässlichkeits-Klassen\relax }}{10}{figure.caption.38}\protected@file@percent }
\@writefile{toc}{\contentsline {subsubsection}{\numberline {4.3.3}Verzögerung}{10}{subsubsection.4.3.3}\protected@file@percent }
\acronymused{MS}
\acronymused{MS}
\acronymused{GPRS}
\acronymused{GPRS}
\@writefile{lot}{\contentsline {table}{\numberline {4}{\ignorespaces Verzögerungsklassen\relax }}{11}{figure.caption.39}\protected@file@percent }
\@writefile{toc}{\contentsline {subsubsection}{\numberline {4.3.4}Durchsatz}{11}{subsubsection.4.3.4}\protected@file@percent }
\@writefile{lot}{\contentsline {table}{\numberline {5}{\ignorespaces Max. Durchsatzklassen\relax }}{11}{table.5}\protected@file@percent }
\newlabel{throughput_max}{{5}{11}{Max. Durchsatzklassen\relax }{table.5}{}}
\@writefile{lot}{\contentsline {table}{\numberline {6}{\ignorespaces Durschn. Durchsatzklassen\relax }}{11}{table.6}\protected@file@percent }
\newlabel{throughput_avg}{{6}{11}{Durschn. Durchsatzklassen\relax }{table.6}{}}
\citation{gsm}
\citation{gsm}
\citation{gsm}
\citation{gsm}
\citation{gsm}
\citation{gsm}
\citation{gsm}
\@writefile{toc}{\contentsline {section}{\numberline {5}Protokolle}{12}{section.5}\protected@file@percent }
\acronymused{GPRS}
\@writefile{toc}{\contentsline {subsection}{\numberline {5.1}Verbindungsaufbau und -abbruch}{12}{subsection.5.1}\protected@file@percent }
\acronymused{MS}
\acronymused{GPRS}
\acronymused{SGSN}
\acronymused{BTS}
\acronymused{HLR}
\acronymused{SGSN}
\acronymused{MS}
\AC@undonewlabel{acro:P-TMSI}
\newlabel{acro:P-TMSI}{{5.1}{12}{Verbindungsaufbau und -abbruch}{section*.40}{}}
\acronymused{P-TMSI}
\acronymused{MS}
\acronymused{PDP}
\@writefile{toc}{\contentsline {subsection}{\numberline {5.2}Session Management und \ac {PDP}-Kontext}{12}{subsection.5.2}\protected@file@percent }
\acronymused{GPRS}
\acronymused{PDN}
\acronymused{MS}
\acronymused{PDP}
\acronymused{PDN}
\acronymused{PDN}
\acronymused{PDP}
\acronymused{MS}
\acronymused{SGSN}
\acronymused{GGSN}
\acronymused{PDP}
\acronymused{PDP}
\acronymused{MS}
\acronymused{QoS}
\acronymused{GGSN}
\acronymused{MS}
\acronymused{PDP}
\acronymused{PDP}
\@writefile{toc}{\contentsline {subsubsection}{\numberline {5.2.1}Statische Zuweisung}{12}{subsubsection.5.2.1}\protected@file@percent }
\acronymused{MS}
\acronymused{PDP}
\acronymused{PLMN}
\@writefile{toc}{\contentsline {subsubsection}{\numberline {5.2.2}Dynamische Zuweisung}{12}{subsubsection.5.2.2}\protected@file@percent }
\acronymused{MS}
\acronymused{PDP}
\acronymused{MS}
\acronymused{PLMN}
\acronymused{PLMN}
\acronymused{PDP}
\acronymused{PLMN}
\acronymused{PDP}
\acronymused{GGSN}
\@writefile{toc}{\contentsline {subsubsection}{\numberline {5.2.3}Kommunikation bei einer Zuweisung}{12}{subsubsection.5.2.3}\protected@file@percent }
\acronymused{MS}
\acronymused{PDP}
\acronymused{MS}
\acronymused{SGSN}
\acronymused{PDP}
\acronymused{GSM}
\acronymused{SGSN}
\citation{gsm}
\citation{qos}
\citation{gsm}
\citation{gsm}
\acronymused{GGSN}
\acronymused{PDP}
\acronymused{SGSN}
\acronymused{PDN}
\acronymused{SGSN}
\acronymused{PDP}
\acronymused{SGSN}
\acronymused{PDP}
\acronymused{PDP}
\acronymused{GPRS}
\acronymused{PDP}
\@writefile{lof}{\contentsline {figure}{\numberline {4}{\ignorespaces PDP-Kontextaktivierung \citep  [S. 239]{gsm}\relax }}{13}{figure.caption.41}\protected@file@percent }
\newlabel{pdp_context}{{4}{13}{PDP-Kontextaktivierung \citep [S. 239]{gsm}\relax }{figure.caption.41}{}}
\@writefile{toc}{\contentsline {subsection}{\numberline {5.3}Positionsverwaltung}{13}{subsection.5.3}\protected@file@percent }
\acronymused{GSM}
\acronymused{MS}
\acronymused{SGSN}
\acronymused{MS}
\acronymused{MS}
\acronymused{GPRS}
\acronymused{MS}
\citation{gsm}
\citation{gsm}
\citation{gsm}
\@writefile{lof}{\contentsline {figure}{\numberline {5}{\ignorespaces Statusmodell einer \ac {GPRS}-\ac {MS} \citep  [S. 241]{gsm}\relax }}{14}{figure.caption.42}\protected@file@percent }
\acronymused{GPRS}
\acronymused{MS}
\newlabel{state_model}{{5}{14}{Statusmodell einer \ac {GPRS}-\ac {MS} \citep [S. 241]{gsm}\relax }{figure.caption.42}{}}
\acronymused{MS}
\acronymused{GPRS}
\acronymused{MS}
\acronymused{MS}
\acronymused{GPRS}
\acronymused{PDP}
\acronymused{GPRS}
\acronymused{MS}
\acronymused{SGSN}
\acronymused{MS}
\acronymused{GSM}
\AC@undonewlabel{acro:RA}
\newlabel{acro:RA}{{5.3}{14}{Positionsverwaltung}{section*.43}{}}
\acronymused{RA}
\acronymused{RA}
\acronymused{SGSN}
\acronymused{MS}
\acronymused{RA}
\acronymused{MS}
\acronymused{MS}
\acronymused{RA}
\AC@undonewlabel{acro:RAI}
\newlabel{acro:RAI}{{5.3}{14}{Positionsverwaltung}{section*.44}{}}
\acronymused{RAI}
\acronymused{RA}
\acronymused{SGSN}
\acronymused{SGSN}
\acronymused{SGSN}
\acronymused{SGSN}
\@writefile{toc}{\contentsline {subsubsection}{\numberline {5.3.1}Intra-\ac {SGSN} Routing Area Update}{14}{subsubsection.5.3.1}\protected@file@percent }
\acronymused{SGSN}
\acronymused{MS}
\acronymused{RA}
\acronymused{SGSN}
\acronymused{RA}
\acronymused{SGSN}
\acronymused{MS}
\acronymused{P-TMSI}
\citation{gsm}
\citation{gsm}
\citation{gsm}
\acronymused{BSS}
\@writefile{lof}{\contentsline {figure}{\numberline {6}{\ignorespaces Intra-\ac {SGSN} Routing Area Update \citep  [S. 242]{gsm}\relax }}{15}{figure.caption.45}\protected@file@percent }
\acronymused{SGSN}
\newlabel{intra_sgsn_rap}{{6}{15}{Intra-\ac {SGSN} Routing Area Update \citep [S. 242]{gsm}\relax }{figure.caption.45}{}}
\acronymused{SGSN}
\@writefile{toc}{\contentsline {subsubsection}{\numberline {5.3.2}Inter-\ac {SGSN} Routing Area Update}{15}{subsubsection.5.3.2}\protected@file@percent }
\acronymused{SGSN}
\acronymused{RA}
\acronymused{SGSN}
\acronymused{SGSN}
\acronymused{MS}
\acronymused{SGSN}
\acronymused{PDP}
\acronymused{MS}
\acronymused{SGSN}
\acronymused{GGSN}
\acronymused{MS}
\acronymused{HLR}
\acronymused{MSC}
\acronymused{VLR}
\acronymused{SGSN}
\acronymused{MS}
\acronymused{SGSN}
\@writefile{lof}{\contentsline {figure}{\numberline {7}{\ignorespaces Inter-\ac {SGSN} Routing Area Update \citep  [S. 243]{gsm}\relax }}{15}{figure.caption.46}\protected@file@percent }
\acronymused{SGSN}
\newlabel{inter_sgsn_rap}{{7}{15}{Inter-\ac {SGSN} Routing Area Update \citep [S. 243]{gsm}\relax }{figure.caption.46}{}}
\citation{gsm}
\citation{gsm}
\citation{gsm}
\acronymused{GPRS}
\acronymused{RA}
\acronymused{SGSN}
\acronymused{HLR}
\acronymused{VLR}
\acronymused{GGSN}
\@writefile{toc}{\contentsline {subsection}{\numberline {5.4}Routing}{16}{subsection.5.4}\protected@file@percent }
\acronymused{MS}
\acronymused{PLMN}
\acronymused{PLMN}
\acronymused{MS}
\acronymused{SGSN}
\acronymused{RA}
\acronymused{MS}
\acronymused{GPRS}
\acronymused{GGSN}
\acronymused{MS}
\acronymused{GGSN}
\acronymused{PLMN}
\acronymused{MS}
\acronymused{GGSN}
\acronymused{HLR}
\acronymused{MS}
\acronymused{PLMN}
\acronymused{BG}
\acronymused{PLMN}
\acronymused{SGSN}
\acronymused{PLMN}
\acronymused{MS}
\@writefile{lof}{\contentsline {figure}{\numberline {8}{\ignorespaces Routing Beispiel; \ac {MS} $\rightarrow $ \ac {PDN} in rot, \ac {PDN} $\rightarrow $ \ac {MS} in blau eingezeichnet \citep  [S. 236]{gsm}\relax }}{16}{figure.caption.47}\protected@file@percent }
\acronymused{MS}
\acronymused{PDN}
\acronymused{PDN}
\acronymused{MS}
\newlabel{routing}{{8}{16}{Routing Beispiel; \ac {MS} $\rightarrow $ \ac {PDN} in rot, \ac {PDN} $\rightarrow $ \ac {MS} in blau eingezeichnet \citep [S. 236]{gsm}\relax }{figure.caption.47}{}}
\@writefile{toc}{\contentsline {section}{\numberline {6}Zusammenfassung}{17}{section.6}\protected@file@percent }
\acronymused{GPRS}
\acronymused{GSM}
\acronymused{GPRS}
\acronymused{EDGE}
\bibdata{ref}
\bibcite{3gpp-doc}{{1}{}{{}}{{}}}
\bibcite{gsm}{{2}{}{{}}{{}}}
\bibcite{heise}{{3}{}{{}}{{}}}
\bibcite{qos}{{4}{}{{}}{{}}}
\bibcite{electronics-notes-edge}{{5}{}{{}}{{}}}
\bibcite{electronics-notes-gprs}{{6}{}{{}}{{}}}
\bibcite{nuntius-gprs}{{7}{}{{}}{{}}}
\bibcite{gsm-architecture}{{8}{}{{}}{{}}}
\bibcite{vdsl}{{9}{}{{}}{{}}}
\bibcite{walke-2013}{{10}{}{{}}{{}}}
\providecommand\NAT@force@numbers{}\NAT@force@numbers
