\relax 
\@nameuse{bbl@beforestart}
\catcode `"\active 
\babel@aux{german}{}
\@writefile{toc}{\contentsline {section}{\numberline {1}2D-Grafik und Rasterisierung}{5}\protected@file@percent }
\@writefile{toc}{\contentsline {subsection}{\numberline {1.1}Koordinatensysteme}{5}\protected@file@percent }
\@writefile{toc}{\contentsline {subsubsection}{\numberline {1.1.1}Darstellung eines Punkts}{5}\protected@file@percent }
\@writefile{toc}{\contentsline {subsubsection}{\numberline {1.1.2}Rasterisierung von Punkten}{5}\protected@file@percent }
\@writefile{toc}{\contentsline {subsubsection}{\numberline {1.1.3}Transformation LKOS $\rightarrow $ GKOS}{6}\protected@file@percent }
\@writefile{toc}{\contentsline {subsubsection}{\numberline {1.1.4}Rundung}{6}\protected@file@percent }
\@writefile{toc}{\contentsline {subsection}{\numberline {1.2}Liniendarstellung}{6}\protected@file@percent }
\@writefile{toc}{\contentsline {subsubsection}{\numberline {1.2.1}Mathematische Geradengleichung}{6}\protected@file@percent }
\@writefile{toc}{\contentsline {subsubsection}{\numberline {1.2.2}Bresenham-Algorithmus}{7}\protected@file@percent }
\@writefile{toc}{\contentsline {subsubsection}{\numberline {1.2.3}Anmerkungen}{9}\protected@file@percent }
\@writefile{toc}{\contentsline {subsection}{\numberline {1.3}(Anti-)Aliasing}{9}\protected@file@percent }
\@writefile{toc}{\contentsline {subsection}{\numberline {1.4}Polygonrasterung und -füllung}{11}\protected@file@percent }
\@writefile{toc}{\contentsline {subsubsection}{\numberline {1.4.1}Polygonrasterung}{11}\protected@file@percent }
\@writefile{toc}{\contentsline {subsubsection}{\numberline {1.4.2}Polygonfüllung}{12}\protected@file@percent }
\@writefile{toc}{\contentsline {subsection}{\numberline {1.5}Clipping}{13}\protected@file@percent }
\newlabel{2d_clipping}{{1.5}{13}}
\@writefile{toc}{\contentsline {subsubsection}{\numberline {1.5.1}Linien-Clipping an Rechteck mit Cohen-Sutherland}{13}\protected@file@percent }
\@writefile{toc}{\contentsline {subsubsection}{\numberline {1.5.2}Clipping an Polygonen nach Liang-Barsky}{15}\protected@file@percent }
\@writefile{toc}{\contentsline {subsection}{\numberline {1.6}Affine Transformationen}{16}\protected@file@percent }
\@writefile{toc}{\contentsline {subsection}{\numberline {1.7}Angewandte rechnergestützte Geometrie}{19}\protected@file@percent }
\@writefile{toc}{\contentsline {section}{\numberline {2}Graustufen- und Farbdarstellung}{21}\protected@file@percent }
\@writefile{toc}{\contentsline {subsection}{\numberline {2.1}Graustufendarstellung}{21}\protected@file@percent }
\@writefile{toc}{\contentsline {subsection}{\numberline {2.2}Farbwahrnehmung}{22}\protected@file@percent }
\@writefile{toc}{\contentsline {subsubsection}{\numberline {2.2.1}CIE-Kegel}{22}\protected@file@percent }
\@writefile{toc}{\contentsline {subsubsection}{\numberline {2.2.2}CIE-Diagramm}{22}\protected@file@percent }
\@writefile{toc}{\contentsline {subsubsection}{\numberline {2.2.3}Metamerie}{23}\protected@file@percent }
\@writefile{toc}{\contentsline {subsection}{\numberline {2.3}Farbmodelle}{23}\protected@file@percent }
\@writefile{toc}{\contentsline {subsubsection}{\numberline {2.3.1}RGB-Modell}{23}\protected@file@percent }
\@writefile{toc}{\contentsline {subsubsection}{\numberline {2.3.2}RGB-Farbspezifikation}{23}\protected@file@percent }
\@writefile{toc}{\contentsline {subsubsection}{\numberline {2.3.3}CMY-Modell}{24}\protected@file@percent }
\@writefile{toc}{\contentsline {subsubsection}{\numberline {2.3.4}Zusammenhang RGB $\leftrightarrow $ CMY}{24}\protected@file@percent }
\@writefile{toc}{\contentsline {subsubsection}{\numberline {2.3.5}Farbmodell}{24}\protected@file@percent }
\@writefile{toc}{\contentsline {subsubsection}{\numberline {2.3.6}HSV-Modell}{24}\protected@file@percent }
\@writefile{toc}{\contentsline {subsubsection}{\numberline {2.3.7}Andere Modelle}{25}\protected@file@percent }
\@writefile{toc}{\contentsline {subsection}{\numberline {2.4}Berechnungen mit RGB-Werten, Speicherung}{25}\protected@file@percent }
\@writefile{toc}{\contentsline {subsubsection}{\numberline {2.4.1}Rechnen mit RGB-Farbwerten}{25}\protected@file@percent }
\@writefile{toc}{\contentsline {subsubsection}{\numberline {2.4.2}Clamping/Lineare Abbildung}{25}\protected@file@percent }
\@writefile{toc}{\contentsline {subsubsection}{\numberline {2.4.3}Speicherung der RGB-Farbinformation}{25}\protected@file@percent }
\@writefile{toc}{\contentsline {section}{\numberline {3}Kurven}{26}\protected@file@percent }
\@writefile{toc}{\contentsline {subsection}{\numberline {3.1}Bézier-Kurven}{28}\protected@file@percent }
\@writefile{toc}{\contentsline {subsection}{\numberline {3.2}B-Splines}{33}\protected@file@percent }
\@writefile{toc}{\contentsline {subsection}{\numberline {3.3}Non Uniform Rational B-Splines (NURBS)}{36}\protected@file@percent }
\@writefile{toc}{\contentsline {section}{\numberline {4}3D-Modellierung}{37}\protected@file@percent }
\@writefile{toc}{\contentsline {subsection}{\numberline {4.1}Szenengraph}{37}\protected@file@percent }
\@writefile{toc}{\contentsline {subsection}{\numberline {4.2}Modellierungsarten}{39}\protected@file@percent }
\@writefile{toc}{\contentsline {subsection}{\numberline {4.3}Volumenmodellierung}{39}\protected@file@percent }
\@writefile{toc}{\contentsline {subsubsection}{\numberline {4.3.1}Normzellen}{39}\protected@file@percent }
\@writefile{toc}{\contentsline {subsubsection}{\numberline {4.3.2}Octrees (dt. Oktalbäume)}{40}\protected@file@percent }
\@writefile{toc}{\contentsline {subsubsection}{\numberline {4.3.3}Constructive Solid Geometry (CSG)}{41}\protected@file@percent }
\@writefile{toc}{\contentsline {subsection}{\numberline {4.4}Kanten- und Oberflächenmodellierung}{42}\protected@file@percent }
\@writefile{toc}{\contentsline {subsubsection}{\numberline {4.4.1}Drahtmodell}{43}\protected@file@percent }
\@writefile{toc}{\contentsline {subsubsection}{\numberline {4.4.2}Oberflächendarstellung (BRep)}{43}\protected@file@percent }
\@writefile{toc}{\contentsline {subsection}{\numberline {4.5}Hybridschemata}{44}\protected@file@percent }
\@writefile{toc}{\contentsline {subsection}{\numberline {4.6}Sweep-Körper / Extrusion}{44}\protected@file@percent }
\@writefile{toc}{\contentsline {section}{\numberline {5}Oberflächendarstellung}{45}\protected@file@percent }
\@writefile{toc}{\contentsline {subsection}{\numberline {5.1}Topologische Struktur}{45}\protected@file@percent }
\@writefile{toc}{\contentsline {subsubsection}{\numberline {5.1.1}Flächen-Knoten-Speicherung}{45}\protected@file@percent }
\@writefile{toc}{\contentsline {subsubsection}{\numberline {5.1.2}Kantenspeicherung}{46}\protected@file@percent }
\@writefile{toc}{\contentsline {subsubsection}{\numberline {5.1.3}Winged-Edge-Repräsentation}{47}\protected@file@percent }
\@writefile{toc}{\contentsline {subsubsection}{\numberline {5.1.4}Half-Edge}{48}\protected@file@percent }
\@writefile{toc}{\contentsline {subsection}{\numberline {5.2}Euler-Operationen}{48}\protected@file@percent }
\@writefile{toc}{\contentsline {subsubsection}{\numberline {5.2.1}Polyedersatz}{48}\protected@file@percent }
\@writefile{toc}{\contentsline {subsubsection}{\numberline {5.2.2}Euler-Operationen}{48}\protected@file@percent }
\@writefile{toc}{\contentsline {subsection}{\numberline {5.3}Flächen}{49}\protected@file@percent }
\@writefile{toc}{\contentsline {subsubsection}{\numberline {5.3.1}Polygone}{49}\protected@file@percent }
\@writefile{toc}{\contentsline {subsubsection}{\numberline {5.3.2}Bilineare Interpolation}{49}\protected@file@percent }
\@writefile{toc}{\contentsline {subsubsection}{\numberline {5.3.3}Coon's Patch}{49}\protected@file@percent }
\@writefile{toc}{\contentsline {subsubsection}{\numberline {5.3.4}Freiformflächen}{50}\protected@file@percent }
\@writefile{toc}{\contentsline {section}{\numberline {6}Transformationen und Projektionen}{51}\protected@file@percent }
\@writefile{toc}{\contentsline {subsection}{\numberline {6.1}Koordinatensysteme}{51}\protected@file@percent }
\@writefile{toc}{\contentsline {subsection}{\numberline {6.2}Affine Transformationen}{52}\protected@file@percent }
\newlabel{affine_transformationen}{{6.2}{52}}
\@writefile{toc}{\contentsline {subsubsection}{\numberline {6.2.1}Einfache affine Transformation}{52}\protected@file@percent }
\@writefile{toc}{\contentsline {subsubsection}{\numberline {6.2.2}Rotation um eine Achse im Raum}{55}\protected@file@percent }
\@writefile{toc}{\contentsline {subsection}{\numberline {6.3}Alternative Darstellungen von Rotationen}{56}\protected@file@percent }
\@writefile{toc}{\contentsline {subsubsection}{\numberline {6.3.1}Quaternionen}{56}\protected@file@percent }
\@writefile{toc}{\contentsline {subsubsection}{\numberline {6.3.2}Rotationsmatrizen}{57}\protected@file@percent }
\@writefile{toc}{\contentsline {subsection}{\numberline {6.4}Perspektivische Abbildung}{57}\protected@file@percent }
\@writefile{lof}{\contentsline {figure}{\numberline {6}{\ignorespaces Graue Ebenen bleiben unverändert, der Bereich dazwischen wird gestreckt, der außerhalb gestaucht.\relax }}{57}\protected@file@percent }
\@writefile{toc}{\contentsline {subsection}{\numberline {6.5}Projektive Abbildungen}{58}\protected@file@percent }
\@writefile{toc}{\contentsline {section}{\numberline {7}3D zu 2D}{59}\protected@file@percent }
\@writefile{toc}{\contentsline {subsection}{\numberline {7.1}Ansichtstransformation}{60}\protected@file@percent }
\@writefile{toc}{\contentsline {subsubsection}{\numberline {7.1.1}Sichtkoordinatensystem}{60}\protected@file@percent }
\@writefile{toc}{\contentsline {subsubsection}{\numberline {7.1.2}Überführung Weltkoordinaten $\rightarrow $ Sichtkoordinaten}{61}\protected@file@percent }
\@writefile{toc}{\contentsline {subsection}{\numberline {7.2}Projektionstransformation}{61}\protected@file@percent }
\@writefile{toc}{\contentsline {subsubsection}{\numberline {7.2.1}Orthogonalprojektion}{62}\protected@file@percent }
\@writefile{toc}{\contentsline {subsubsection}{\numberline {7.2.2}Perspektivische Projektion}{64}\protected@file@percent }
\@writefile{toc}{\contentsline {subsection}{\numberline {7.3}Clipping / Normalisierung}{66}\protected@file@percent }
\@writefile{toc}{\contentsline {subsection}{\numberline {7.4}Bildschirmtransformation}{67}\protected@file@percent }
\@writefile{toc}{\contentsline {section}{\numberline {8}Sichtbarkeitsentscheid}{68}\protected@file@percent }
\@writefile{toc}{\contentsline {subsection}{\numberline {8.1}3D-Clipping}{68}\protected@file@percent }
\@writefile{toc}{\contentsline {subsection}{\numberline {8.2}Rückseitenentfernung}{68}\protected@file@percent }
\@writefile{toc}{\contentsline {subsubsection}{\numberline {8.2.1}Variante 1}{68}\protected@file@percent }
\@writefile{toc}{\contentsline {subsubsection}{\numberline {8.2.2}Variante 2}{69}\protected@file@percent }
\@writefile{toc}{\contentsline {subsection}{\numberline {8.3}Tiefenpuffer-Algorithmus}{69}\protected@file@percent }
\@writefile{toc}{\contentsline {subsection}{\numberline {8.4}List-Priority-Verfahren}{71}\protected@file@percent }
\@writefile{toc}{\contentsline {subsection}{\numberline {8.5}Raycasting}{71}\protected@file@percent }
\newlabel{raycasting}{{8.5}{71}}
\@writefile{toc}{\contentsline {subsubsection}{\numberline {8.5.1}Grundlagen}{71}\protected@file@percent }
\@writefile{toc}{\contentsline {subsubsection}{\numberline {8.5.2}Beschleunigung}{72}\protected@file@percent }
\@writefile{toc}{\contentsline {section}{\numberline {9}Beleuchtung und Schattierung}{72}\protected@file@percent }
\@writefile{toc}{\contentsline {subsection}{\numberline {9.1}Lokale Beleuchtung}{72}\protected@file@percent }
\@writefile{toc}{\contentsline {subsubsection}{\numberline {9.1.1}Ambiente Reflexion}{73}\protected@file@percent }
\@writefile{toc}{\contentsline {subsubsection}{\numberline {9.1.2}Punktförmige Lichtquellen mit diffuser Reflexion}{73}\protected@file@percent }
\@writefile{toc}{\contentsline {subsubsection}{\numberline {9.1.3}Spekulare Reflexion}{74}\protected@file@percent }
\@writefile{toc}{\contentsline {subsubsection}{\numberline {9.1.4}Kombination der drei Beleuchtungsarten}{75}\protected@file@percent }
\@writefile{toc}{\contentsline {subsubsection}{\numberline {9.1.5}Entfernungsabhängigkeit und Nebel}{75}\protected@file@percent }
\@writefile{toc}{\contentsline {subsection}{\numberline {9.2}Schattierung}{76}\protected@file@percent }
\@writefile{toc}{\contentsline {subsubsection}{\numberline {9.2.1}Konstante Schattierung (flat shading)}{76}\protected@file@percent }
\@writefile{toc}{\contentsline {subsubsection}{\numberline {9.2.2}Interpolierte Schattierung}{77}\protected@file@percent }
\@writefile{toc}{\contentsline {subsection}{\numberline {9.3}Transparenz}{78}\protected@file@percent }
\@writefile{toc}{\contentsline {subsubsection}{\numberline {9.3.1}Transparenz ohne Brechung des Lichts}{78}\protected@file@percent }
\@writefile{toc}{\contentsline {subsubsection}{\numberline {9.3.2}Transparenz mit Brechung des Lichts}{79}\protected@file@percent }
\@writefile{toc}{\contentsline {section}{\numberline {10}Globale Beleuchtungsmodelle}{80}\protected@file@percent }
\@writefile{toc}{\contentsline {subsection}{\numberline {10.1}Raytracing}{80}\protected@file@percent }
\newlabel{raytracing}{{10.1}{80}}
\@writefile{toc}{\contentsline {subsection}{\numberline {10.2}Andere strahlenbasierte Verfahren}{82}\protected@file@percent }
\@writefile{toc}{\contentsline {subsubsection}{\numberline {10.2.1}Photon Mapping}{82}\protected@file@percent }
\@writefile{toc}{\contentsline {subsubsection}{\numberline {10.2.2}Ambient Occlusion}{82}\protected@file@percent }
\@writefile{toc}{\contentsline {subsubsection}{\numberline {10.2.3}Image Based Lighting}{82}\protected@file@percent }
\@writefile{toc}{\contentsline {subsection}{\numberline {10.3}Radiosity-Verfahren}{83}\protected@file@percent }
\@writefile{toc}{\contentsline {subsubsection}{\numberline {10.3.1}Berechnung für Strahlungswerte}{83}\protected@file@percent }
\@writefile{toc}{\contentsline {subsubsection}{\numberline {10.3.2}Berechnung der Formfaktoren}{83}\protected@file@percent }
\@writefile{toc}{\contentsline {subsubsection}{\numberline {10.3.3}Darstellung des Bildes}{84}\protected@file@percent }
\@writefile{toc}{\contentsline {subsubsection}{\numberline {10.3.4}Vergleich Raytracing / Radiosity}{84}\protected@file@percent }
