This is BibTeX, Version 0.99dThe top-level auxiliary file: PM_Skript.aux
I found no \citation commands---while reading file PM_Skript.aux
I found no \bibdata command---while reading file PM_Skript.aux
I found no \bibstyle command---while reading file PM_Skript.aux
(There were 3 error messages)
