\relax 
\@nameuse{bbl@beforestart}
\catcode `"\active 
\babel@aux{german}{}
\@writefile{toc}{\contentsline {section}{\numberline {1}Grundlagen}{4}\protected@file@percent }
\@writefile{toc}{\contentsline {subsection}{\numberline {1.1}Merkmale eines Projekts}{4}\protected@file@percent }
\@writefile{toc}{\contentsline {subsubsection}{\numberline {1.1.1}Das Magische Projektdreieck}{5}\protected@file@percent }
\@writefile{toc}{\contentsline {subsubsection}{\numberline {1.1.2}Das Teufelsquadrat nach Sneed}{5}\protected@file@percent }
\@writefile{toc}{\contentsline {subsection}{\numberline {1.2}Projektmanagement}{6}\protected@file@percent }
\@writefile{toc}{\contentsline {subsection}{\numberline {1.3}Grundsätze des Projektmanagements}{6}\protected@file@percent }
\@writefile{toc}{\contentsline {subsubsection}{\numberline {1.3.1}Der Projektmanagement-Regelkreis}{6}\protected@file@percent }
\@writefile{toc}{\contentsline {subsubsection}{\numberline {1.3.2}PDCA-Zyklus nach Deming}{6}\protected@file@percent }
\@writefile{toc}{\contentsline {section}{\numberline {2}Projektorganisation}{7}\protected@file@percent }
\@writefile{toc}{\contentsline {subsection}{\numberline {2.1}Formen der Projektorganisation}{7}\protected@file@percent }
\@writefile{toc}{\contentsline {subsubsection}{\numberline {2.1.1}Projektmanagement in der Linie}{8}\protected@file@percent }
\@writefile{toc}{\contentsline {subsubsection}{\numberline {2.1.2}Einfluss-Projektorganisation}{9}\protected@file@percent }
\@writefile{toc}{\contentsline {subsubsection}{\numberline {2.1.3}Matrix-Projektorganisation}{10}\protected@file@percent }
\@writefile{toc}{\contentsline {subsubsection}{\numberline {2.1.4}Reine Projektorganisation}{11}\protected@file@percent }
\@writefile{toc}{\contentsline {subsection}{\numberline {2.2}Unternehmensübergreifende Projektorganisation}{12}\protected@file@percent }
\@writefile{toc}{\contentsline {subsubsection}{\numberline {2.2.1}Einzelauftragsorganisation}{12}\protected@file@percent }
\@writefile{toc}{\contentsline {subsubsection}{\numberline {2.2.2}Konsortialorganisation}{12}\protected@file@percent }
\@writefile{toc}{\contentsline {subsubsection}{\numberline {2.2.3}Generalunternehmerorganisation (GU-Projekt)}{12}\protected@file@percent }
\@writefile{toc}{\contentsline {subsection}{\numberline {2.3}Rollen in einer Projektorganisation}{12}\protected@file@percent }
\@writefile{toc}{\contentsline {section}{\numberline {3}Projektphasen}{13}\protected@file@percent }
\@writefile{toc}{\contentsline {subsection}{\numberline {3.1}Der Projektmanagement-Regelkreis}{13}\protected@file@percent }
\@writefile{toc}{\contentsline {subsection}{\numberline {3.2}Vorgehensmodelle}{14}\protected@file@percent }
\@writefile{toc}{\contentsline {subsubsection}{\numberline {3.2.1}Wasserfallmodell}{15}\protected@file@percent }
\@writefile{toc}{\contentsline {subsubsection}{\numberline {3.2.2}V-Modell}{16}\protected@file@percent }
\@writefile{toc}{\contentsline {subsubsection}{\numberline {3.2.3}Iterativ inkrementelles Vorgehensmodell}{17}\protected@file@percent }
\@writefile{toc}{\contentsline {subsection}{\numberline {3.3}Projektziele}{19}\protected@file@percent }
\@writefile{toc}{\contentsline {subsection}{\numberline {3.4}Umfeldanalyse}{20}\protected@file@percent }
\@writefile{toc}{\contentsline {subsubsection}{\numberline {3.4.1}Projektumfeld-Analyse}{20}\protected@file@percent }
\@writefile{toc}{\contentsline {subsubsection}{\numberline {3.4.2}Stakeholder-Analyse}{20}\protected@file@percent }
\@writefile{toc}{\contentsline {subsection}{\numberline {3.5}Projektrisikoabschätzung}{23}\protected@file@percent }
\@writefile{toc}{\contentsline {subsection}{\numberline {3.6}Projekt-Kick-Off}{26}\protected@file@percent }
\@writefile{toc}{\contentsline {section}{\numberline {4}Projektplanung}{27}\protected@file@percent }
\@writefile{toc}{\contentsline {subsection}{\numberline {4.1}Der Projektstrukturplan (PSP)}{28}\protected@file@percent }
\@writefile{toc}{\contentsline {subsubsection}{\numberline {4.1.1}Erstellung eines PSP}{30}\protected@file@percent }
\@writefile{toc}{\contentsline {subsection}{\numberline {4.2}Termin- und Ablaufplanung}{32}\protected@file@percent }
\@writefile{toc}{\contentsline {subsubsection}{\numberline {4.2.1}Planung der Fristen und Termine}{32}\protected@file@percent }
\@writefile{toc}{\contentsline {subsubsection}{\numberline {4.2.2}Projektphasen und Meilensteine}{32}\protected@file@percent }
\@writefile{toc}{\contentsline {subsubsection}{\numberline {4.2.3}Balkenpläne (Gantt-Diagramme)}{33}\protected@file@percent }
\@writefile{toc}{\contentsline {subsubsection}{\numberline {4.2.4}Netzplantechnik - Generell}{34}\protected@file@percent }
\@writefile{toc}{\contentsline {subsubsection}{\numberline {4.2.5}Netzplantechnik - Vorgangsknoten-Netzplan (VKN) - Methode MPM}{35}\protected@file@percent }
\@writefile{toc}{\contentsline {subsubsection}{\numberline {4.2.6}Netzplantechnik - Vorgangspfeil-Netzplan (VPN) - Methode CPM}{39}\protected@file@percent }
\@writefile{toc}{\contentsline {subsubsection}{\numberline {4.2.7}Netzplantechnik - Ereignisknoten-Netzplan (EKN) - Methode PERT}{39}\protected@file@percent }
\newlabel{PERT}{{4.2.7}{39}}
\@writefile{toc}{\contentsline {subsection}{\numberline {4.3}Feinplanung \& Optimierung}{40}\protected@file@percent }
\@writefile{toc}{\contentsline {subsubsection}{\numberline {4.3.1}Terminbeschleunigung}{40}\protected@file@percent }
\@writefile{toc}{\contentsline {subsubsection}{\numberline {4.3.2}Feinplanung}{41}\protected@file@percent }
\@writefile{toc}{\contentsline {section}{\numberline {5}Projektcontrolling}{42}\protected@file@percent }
\@writefile{toc}{\contentsline {subsection}{\numberline {5.1}Projektfortschrittskontrolle}{43}\protected@file@percent }
\@writefile{toc}{\contentsline {subsection}{\numberline {5.2}Trendanalysen}{45}\protected@file@percent }
\@writefile{toc}{\contentsline {subsubsection}{\numberline {5.2.1}Meilenstein-Trendanalyse (MTA)}{45}\protected@file@percent }
\@writefile{toc}{\contentsline {subsubsection}{\numberline {5.2.2}Kosten-Trendanalyse (KTA)}{45}\protected@file@percent }
\@writefile{toc}{\contentsline {subsubsection}{\numberline {5.2.3}Earned Value Analysis}{47}\protected@file@percent }
\@writefile{toc}{\contentsline {section}{\numberline {6}Agiles Projektmanagement - Scrum}{49}\protected@file@percent }
\@writefile{toc}{\contentsline {subsection}{\numberline {6.1}Das Agile Manifest}{49}\protected@file@percent }
\@writefile{toc}{\contentsline {subsection}{\numberline {6.2}Rollen}{50}\protected@file@percent }
\@writefile{toc}{\contentsline {subsubsection}{\numberline {6.2.1}Team}{50}\protected@file@percent }
\@writefile{toc}{\contentsline {subsubsection}{\numberline {6.2.2}Product Owner}{50}\protected@file@percent }
\@writefile{toc}{\contentsline {subsubsection}{\numberline {6.2.3}Scrum-Master}{50}\protected@file@percent }
\@writefile{toc}{\contentsline {subsection}{\numberline {6.3}Bestandteile - Backlogs}{50}\protected@file@percent }
\@writefile{toc}{\contentsline {subsubsection}{\numberline {6.3.1}Product Backlog}{50}\protected@file@percent }
\@writefile{toc}{\contentsline {subsubsection}{\numberline {6.3.2}Sprint Backlog}{50}\protected@file@percent }
\@writefile{toc}{\contentsline {subsection}{\numberline {6.4}Ablauf}{51}\protected@file@percent }
\@writefile{toc}{\contentsline {subsection}{\numberline {6.5}Verbesserung von Scrum}{51}\protected@file@percent }
\@writefile{toc}{\contentsline {subsection}{\numberline {6.6}Zusammenfassung}{51}\protected@file@percent }
\@writefile{toc}{\contentsline {section}{\numberline {7}Aufwandsschätzung}{53}\protected@file@percent }
\@writefile{toc}{\contentsline {subsection}{\numberline {7.1}Methoden}{54}\protected@file@percent }
\@writefile{toc}{\contentsline {subsubsection}{\numberline {7.1.1}Bottom-Up}{54}\protected@file@percent }
\@writefile{toc}{\contentsline {subsubsection}{\numberline {7.1.2}Top-Down}{54}\protected@file@percent }
\@writefile{toc}{\contentsline {subsection}{\numberline {7.2}Kostenschätzung mit Expertengruppen}{54}\protected@file@percent }
\@writefile{toc}{\contentsline {subsubsection}{\numberline {7.2.1}Schätzklausur}{54}\protected@file@percent }
\@writefile{toc}{\contentsline {subsubsection}{\numberline {7.2.2}Die Delphi-Methode}{55}\protected@file@percent }
\@writefile{toc}{\contentsline {subsection}{\numberline {7.3}Zahlen für die Abschätzung}{55}\protected@file@percent }
\@writefile{toc}{\contentsline {subsubsection}{\numberline {7.3.1}Die Zwei-Punkt-Schätzung}{55}\protected@file@percent }
\@writefile{toc}{\contentsline {subsubsection}{\numberline {7.3.2}Die Drei-Punkt-Schätzung}{55}\protected@file@percent }
\@writefile{toc}{\contentsline {subsection}{\numberline {7.4}Unter- / Überschätzung}{56}\protected@file@percent }
\@writefile{toc}{\contentsline {subsection}{\numberline {7.5}Projektverlängerung \& Zeitdruck}{56}\protected@file@percent }
\@writefile{toc}{\contentsline {subsection}{\numberline {7.6}Ursachen für mangelnde Schätzgenauigkeit}{56}\protected@file@percent }
\@writefile{toc}{\contentsline {section}{\numberline {8}Kostenplanung}{57}\protected@file@percent }
\@writefile{toc}{\contentsline {subsection}{\numberline {8.1}Basis}{57}\protected@file@percent }
\@writefile{toc}{\contentsline {subsection}{\numberline {8.2}Kostentransparenz}{57}\protected@file@percent }
\@writefile{toc}{\contentsline {subsubsection}{\numberline {8.2.1}Kostenart}{57}\protected@file@percent }
\@writefile{toc}{\contentsline {subsubsection}{\numberline {8.2.2}Kostenträger}{58}\protected@file@percent }
\@writefile{toc}{\contentsline {subsubsection}{\numberline {8.2.3}Kostenstelle}{58}\protected@file@percent }
\@writefile{toc}{\contentsline {subsubsection}{\numberline {8.2.4}Beispielzuordnung}{58}\protected@file@percent }
\@writefile{toc}{\contentsline {subsection}{\numberline {8.3}Kostenminimale Projektbeschleunigung}{58}\protected@file@percent }
\@writefile{toc}{\contentsline {subsubsection}{\numberline {8.3.1}Projektkostenarten}{59}\protected@file@percent }
\@writefile{toc}{\contentsline {subsubsection}{\numberline {8.3.2}Vorbereitung}{59}\protected@file@percent }
\@writefile{toc}{\contentsline {subsubsection}{\numberline {8.3.3}Ford-Fulkerson-Algorithmus}{59}\protected@file@percent }
