\relax 
\@nameuse{bbl@beforestart}
\catcode `"\active 
\babel@aux{german}{}
\@writefile{toc}{\contentsline {section}{\numberline {1}Einleitung}{3}\protected@file@percent }
\@writefile{toc}{\contentsline {subsection}{\numberline {1.1}Grundbegriffe}{4}\protected@file@percent }
\@writefile{toc}{\contentsline {subsection}{\numberline {1.2}Grammatik}{5}\protected@file@percent }
\@writefile{toc}{\contentsline {subsection}{\numberline {1.3}Chomsky-Hierarchie}{6}\protected@file@percent }
\@writefile{toc}{\contentsline {subsection}{\numberline {1.4}Wortproblem}{8}\protected@file@percent }
\@writefile{toc}{\contentsline {subsection}{\numberline {1.5}Backus-Naur-Form}{9}\protected@file@percent }
\@writefile{toc}{\contentsline {section}{\numberline {2}Reguläre Sprachen}{10}\protected@file@percent }
\@writefile{toc}{\contentsline {subsection}{\numberline {2.1}Endliche Automaten (EA)}{10}\protected@file@percent }
\@writefile{toc}{\contentsline {subsubsection}{\numberline {2.1.1}Deterministische Endliche Automaten (DEA)}{10}\protected@file@percent }
\@writefile{toc}{\contentsline {subsubsection}{\numberline {2.1.2}Nichtdeterministische endliche Automaten}{13}\protected@file@percent }
\@writefile{toc}{\contentsline {subsubsection}{\numberline {2.1.3}NEA mit $\varepsilon $-Kanten}{17}\protected@file@percent }
\@writefile{toc}{\contentsline {subsection}{\numberline {2.2}Reguläre Ausdrücke, RA}{19}\protected@file@percent }
\@writefile{toc}{\contentsline {subsection}{\numberline {2.3}Rechnen mit regulären Ausdrücken}{22}\protected@file@percent }
\@writefile{toc}{\contentsline {subsubsection}{\numberline {2.3.1}Algebraische Umformungen}{22}\protected@file@percent }
\@writefile{toc}{\contentsline {subsubsection}{\numberline {2.3.2}Rechenregeln für reuläre Ausdrücke}{23}\protected@file@percent }
\@writefile{toc}{\contentsline {subsection}{\numberline {2.4}Das Pumping Lemma}{25}\protected@file@percent }
\@writefile{toc}{\contentsline {subsection}{\numberline {2.5}Der Satz von Myhill/Nerode}{26}\protected@file@percent }
\@writefile{toc}{\contentsline {subsubsection}{\numberline {2.5.1}Definition}{26}\protected@file@percent }
\@writefile{toc}{\contentsline {subsubsection}{\numberline {2.5.2}Hilfsmittel}{26}\protected@file@percent }
\@writefile{toc}{\contentsline {subsubsection}{\numberline {2.5.3}Beweis}{27}\protected@file@percent }
\@writefile{toc}{\contentsline {subsection}{\numberline {2.6}DEA-Minimierung}{28}\protected@file@percent }
\@writefile{toc}{\contentsline {section}{\numberline {3}Kontextfreie Sprachen}{31}\protected@file@percent }
\@writefile{toc}{\contentsline {subsection}{\numberline {3.1}Normalformen}{32}\protected@file@percent }
\@writefile{toc}{\contentsline {subsection}{\numberline {3.2}Pumping Lemma für kontextfreie Sprachen}{34}\protected@file@percent }
\@writefile{toc}{\contentsline {subsection}{\numberline {3.3}Abschlusseigenschaften}{34}\protected@file@percent }
\@writefile{toc}{\contentsline {subsection}{\numberline {3.4}Der CYK-Algorithmus}{35}\protected@file@percent }
\@writefile{toc}{\contentsline {subsection}{\numberline {3.5}Kellerautomaten}{37}\protected@file@percent }
\@writefile{toc}{\contentsline {section}{\numberline {4}Turing-Maschinen}{39}\protected@file@percent }
\@writefile{lof}{\contentsline {figure}{\numberline {7}{\ignorespaces Transitionsfunktionen $\delta $\relax }}{43}\protected@file@percent }
\@writefile{toc}{\contentsline {section}{\numberline {5}Berechenbarkeit}{47}\protected@file@percent }
\@writefile{toc}{\contentsline {subsection}{\numberline {5.1}Grundlagen}{47}\protected@file@percent }
\@writefile{toc}{\contentsline {subsubsection}{\numberline {5.1.1}Diagonalverfahren 1 von Cantor}{48}\protected@file@percent }
\@writefile{toc}{\contentsline {subsubsection}{\numberline {5.1.2}Nicht abzählbare Mengen}{48}\protected@file@percent }
\@writefile{toc}{\contentsline {subsubsection}{\numberline {5.1.3}Diagonalverfahren 2 von Cantor}{49}\protected@file@percent }
\@writefile{toc}{\contentsline {subsubsection}{\numberline {5.1.4}Hilfsfunktion für die Definition der Turing-Berechenbarkeit}{49}\protected@file@percent }
\@writefile{toc}{\contentsline {subsection}{\numberline {5.2}Funktion $f_T$ der Turing-Maschine}{49}\protected@file@percent }
\@writefile{toc}{\contentsline {subsection}{\numberline {5.3}Turing-berechenbare Funktion}{50}\protected@file@percent }
